<svg width="24" height="24" viewBox="0 0 24 24" fill="none" xmlns="http://www.w3.org/2000/svg">
<path fill-rule="evenodd" clip-rule="evenodd" d="M3 12.0004C3 7.04863 7.04863 3 12.0004 3C16.9522 3 21.0008 7.04863 21.0008 12.0004C21.0008 16.9522 16.9522 21.0008 12.0004 21.0008C7.04863 21.0008 3 16.9522 3 12.0004ZM12.0004 4.35266C7.79568 4.35266 4.35266 7.79568 4.35266 12.0004C4.35266 16.2051 7.79568 19.6481 12.0004 19.6481C16.2051 19.6481 19.6481 16.2051 19.6481 12.0004C19.6481 7.79568 16.2051 4.35266 12.0004 4.35266Z" fill="white"/>
<path fill-rule="evenodd" clip-rule="evenodd" d="M11.9966 7.85522C12.3702 7.85522 12.673 8.15803 12.673 8.53155V12.867C12.673 13.2405 12.3702 13.5433 11.9966 13.5433C11.6231 13.5433 11.3203 13.2405 11.3203 12.867V8.53155C11.3203 8.15803 11.6231 7.85522 11.9966 7.85522Z" fill="white"/>
<path fill-rule="evenodd" clip-rule="evenodd" d="M11.3203 15.4683C11.3203 15.0948 11.6231 14.792 11.9966 14.792H12.0044C12.378 14.792 12.6808 15.0948 12.6808 15.4683C12.6808 15.8418 12.378 16.1447 12.0044 16.1447H11.9966C11.6231 16.1447 11.3203 15.8418 11.3203 15.4683Z" fill="white"/>
</svg>
