<svg width="24" height="24" viewBox="0 0 24 24" fill="none" xmlns="http://www.w3.org/2000/svg">
<rect width="24" height="24" rx="4" fill="#F58634"/>
<g clip-path="url(#clip0_2072_13383)">
<path d="M17.0625 9.75H16.5V7.5C16.5 5.01825 14.4818 3 12 3C9.51825 3 7.5 5.01825 7.5 7.5V9.75H6.9375C6.0075 9.75 5.25 10.5067 5.25 11.4375V19.3125C5.25 20.2433 6.0075 21 6.9375 21H17.0625C17.9925 21 18.75 20.2433 18.75 19.3125V11.4375C18.75 10.5067 17.9925 9.75 17.0625 9.75ZM9 7.5C9 5.8455 10.3455 4.5 12 4.5C13.6545 4.5 15 5.8455 15 7.5V9.75H9V7.5ZM12.75 15.5415V17.25C12.75 17.664 12.4147 18 12 18C11.5853 18 11.25 17.664 11.25 17.25V15.5415C10.8037 15.2813 10.5 14.8027 10.5 14.25C10.5 13.4227 11.1727 12.75 12 12.75C12.8273 12.75 13.5 13.4227 13.5 14.25C13.5 14.8027 13.1963 15.2813 12.75 15.5415Z" fill="white"/>
</g>
<defs>
<clipPath id="clip0_2072_13383">
<rect width="18" height="18" fill="white" transform="translate(3 3)"/>
</clipPath>
</defs>
</svg>
